Tidying datasets
…
We can find the average life expectancy by continent and year with

out = gapminder %>% 
  group_by(continent, year) %>% 
  summarize(avglife=mean(lifeExp))
out

## # A tibble: 60 x 3
## # Groups:   continent [?]
##    continent  year avglife
##    <fct>     <int>   <dbl>
##  1 Africa     1952    39.1
##  2 Africa     1957    41.3
##  3 Africa     1962    43.3
##  4 Africa     1967    45.3
##  5 Africa     1972    47.5
##  6 Africa     1977    49.6
##  7 Africa     1982    51.6
##  8 Africa     1987    53.3
##  9 Africa     1992    53.6
## 10 Africa     1997    53.6
## # ... with 50 more rows
…
Let’s do something a little more difficult. Let’s try to find the population differential betyouen 2007 and 1957 (range of the data) and sort the data in ascending order by the population differential. A way to do this is

gapminder %>% select(country, year, pop) %>%
          filter(year==1952|year==2007)  %>% 
          spread(key=year, value=pop) %>%
          mutate(diffPop = `2007`-`1952`) %>%
          select(country, diffPop) %>%
          arrange(diffPop)

## # A tibble: 142 x 2
##    country               diffPop
##    <fct>                   <int>
##  1 Bulgaria                47958
##  2 Sao Tome and Principe  139568
##  3 Iceland                153969
##  4 Montenegro             270902
##  5 Equatorial Guinea      334237
##  6 Trinidad and Tobago    393758
##  7 Djibouti               433225
##  8 Hungary                452108
##  9 Slovenia               519727
## 10 Reunion                540394
## # ... with 132 more rows
…
